{
  "registry.terraform.io/hashicorp/template": {
    "hash": "h1:94qn780bi1qjrbC3uQtjJh3Wkfwd5+tTtJHOb7KTg9w=",
    "version": "2.2.0"
  },
  "registry.terraform.io/hashicorp/time": {
    "hash": "h1:CI0tS9o8Yrcq789g4M0NaY4IWfN6MOX41FnZHoCGPKg=",
    "version": "0.6.0"
  },
  "registry.terraform.io/hetznercloud/hcloud": {
    "hash": "h1:TEvQLx8GeL3cYf69r4C3zS96QQusHAMuXN1yDeFANs4=",
    "version": "1.24.1"
  },
  "registry.terraform.io/rancher/rke": {
    "hash": "h1:ojfIqJYDMHQhVbWXKSKQPmCcNKV+xlObIdwYLI56cFI=",
    "version": "1.1.7"
  }
}